<svg width="184" height="62" viewBox="0 0 184 62" fill="none" xmlns="http://www.w3.org/2000/svg">
<path d="M25.448 17.296H48.488V21.76H39.176V52H34.52V21.76H25.448V17.296ZM55.9501 32.128L56.2861 36.784C56.8301 35.664 57.5821 34.704 58.5421 33.904C59.5021 33.072 60.4941 32.448 61.5181 32.032C62.5741 31.584 63.4861 31.344 64.2541 31.312L64.0621 35.776C62.5581 35.712 61.2301 36.016 60.0781 36.688C58.9261 37.328 58.0301 38.208 57.3901 39.328C56.7501 40.448 56.4301 41.648 56.4301 42.928V52H51.9661V32.128H55.9501ZM70.013 32.128H74.477V52H70.013V32.128ZM69.677 24.976C69.677 24.24 69.949 23.648 70.493 23.2C71.069 22.72 71.693 22.48 72.365 22.48C73.037 22.48 73.645 22.72 74.189 23.2C74.733 23.648 75.005 24.24 75.005 24.976C75.005 25.712 74.733 26.32 74.189 26.8C73.645 27.248 73.037 27.472 72.365 27.472C71.693 27.472 71.069 27.248 70.493 26.8C69.949 26.32 69.677 25.712 69.677 24.976ZM112.622 32.128H117.086V52H112.622V32.128ZM112.286 24.976C112.286 24.24 112.558 23.648 113.102 23.2C113.678 22.72 114.302 22.48 114.974 22.48C115.646 22.48 116.254 22.72 116.798 23.2C117.342 23.648 117.614 24.24 117.614 24.976C117.614 25.712 117.342 26.32 116.798 26.8C116.254 27.248 115.646 27.472 114.974 27.472C114.302 27.472 113.678 27.248 113.102 26.8C112.558 26.32 112.286 25.712 112.286 24.976ZM133.161 52.48C131.273 52.48 129.561 52.08 128.025 51.28C126.521 50.48 125.321 49.312 124.425 47.776C123.561 46.208 123.129 44.304 123.129 42.064C123.129 39.824 123.577 37.904 124.473 36.304C125.401 34.704 126.633 33.472 128.169 32.608C129.737 31.744 131.449 31.312 133.305 31.312C135.097 31.312 136.617 31.696 137.865 32.464C139.113 33.232 140.089 34.16 140.793 35.248L141.129 32.128H145.257V52H140.793V48.736C140.409 49.248 139.849 49.792 139.113 50.368C138.409 50.944 137.545 51.44 136.521 51.856C135.529 52.272 134.409 52.48 133.161 52.48ZM134.361 48.784C135.993 48.784 137.385 48.336 138.537 47.44C139.689 46.512 140.441 45.264 140.793 43.696V39.76C140.409 38.384 139.609 37.248 138.393 36.352C137.177 35.456 135.785 35.008 134.217 35.008C133.001 35.008 131.897 35.296 130.905 35.872C129.913 36.448 129.113 37.248 128.505 38.272C127.929 39.296 127.641 40.48 127.641 41.824C127.641 43.136 127.945 44.32 128.553 45.376C129.161 46.4 129.977 47.232 131.001 47.872C132.025 48.48 133.145 48.784 134.361 48.784ZM153.029 14.8H157.493V52H153.029V14.8Z" fill="#F6C90E"/>
<path d="M85.2715 22.32L93.3835 49.3557L101.222 22.32H105.668L93.2275 61.5503L80.7865 22.32H85.2715Z" fill="#F6C90E"/>
<path d="M0.5 42.5C5.7 -9.89999 124.333 -1.99999 183 8.50001" stroke="#F6C90E"/>
</svg>
